<?xml version="1.0" encoding="utf-8"?>
<!-- Generator: Adobe Illustrator 16.0.0, SVG Export Plug-In . SVG Version: 6.00 Build 0)  -->
<!DOCTYPE svg PUBLIC "-//W3C//DTD SVG 1.1//EN" "http://www.w3.org/Graphics/SVG/1.1/DTD/svg11.dtd">
<svg version="1.1" id="Layer_1" xmlns="http://www.w3.org/2000/svg" xmlns:xlink="http://www.w3.org/1999/xlink" x="0px" y="0px"
	 width="50px" height="50px" viewBox="0 0 50 50" enable-background="new 0 0 50 50" xml:space="preserve">
<g>
	<g>
		<path fill="#82BB27" d="M42.563,7.612c-0.291-0.525-0.706-0.879-1.331-0.936c-10.82,0-21.642,0-32.462,0
			c-0.793,0.045-1.4,0.721-1.459,1.416c0,10.848,0,21.701,0,32.553c0.07,0.734,0.678,1.34,1.412,1.414c10.852,0,21.704,0,32.557,0
			c0.141-0.047,0.296-0.037,0.438-0.107c0.568-0.277,0.915-0.711,0.974-1.352c0-10.822,0-21.643,0-32.463
			C42.649,7.962,42.658,7.778,42.563,7.612z"/>
	</g>
</g>
<g>
	<path fill-rule="evenodd" clip-rule="evenodd" fill="#FEFEFF" d="M15.575,11.485c2.338,2.391,4.582,4.682,6.793,6.941
		c-0.801,0.814-1.685,1.717-2.604,2.658c-0.333-0.313-0.688-0.648-1.045-0.98c-0.035,0.014-0.072,0.033-0.108,0.051
		c0.125,0.42,0.194,0.863,0.379,1.256c2.136,4.537,5.635,7.566,10.255,9.346c0.063-0.063,0.125-0.123,0.188-0.186
		c-0.217-0.17-0.432-0.344-0.649-0.514c-0.235-0.182-0.476-0.359-0.683-0.516c1.013-1.029,1.904-1.936,2.837-2.885
		c2.245,2.303,4.498,4.613,6.69,6.861c-0.88,0.92-1.764,1.957-2.763,2.865c-1.185,1.074-2.644,0.973-4.074,0.627
		c-2.406-0.578-4.48-1.844-6.438-3.297c-3.943-2.922-7.391-6.322-9.853-10.623c-0.995-1.736-1.796-3.553-2.056-5.559
		c-0.201-1.566-0.006-3,1.296-4.125C14.399,12.837,14.954,12.146,15.575,11.485z"/>
</g>
</svg>
